%YAML 1.1
%TAG !u! tag:unity3d.com,2011:
--- !u!114 &11400000
MonoBehaviour:
  m_ObjectHideFlags: 0
  m_CorrespondingSourceObject: {fileID: 0}
  m_PrefabInstance: {fileID: 0}
  m_PrefabAsset: {fileID: 0}
  m_GameObject: {fileID: 0}
  m_Enabled: 1
  m_EditorHideFlags: 0
  m_Script: {fileID: 11500000, guid: 468a46d0ae32c3544b7d98094e6448a9, type: 3}
  m_Name: AddressableAssetSettings
  m_EditorClassIdentifier: 
  m_DefaultGroup: 19c9fa2a29b965849b981056d9424661
  m_OptimizeCatalogSize: 0
  m_BuildRemoteCatalog: 0
  m_BundleLocalCatalog: 0
  m_DisableCatalogUpdateOnStart: 0
  m_UniqueBundleIds: 0
  m_maxConcurrentWebRequests: 500
  m_ContiguousBundles: 0
  m_RemoteCatalogBuildPath:
    m_Id: 
  m_RemoteCatalogLoadPath:
    m_Id: 
  m_overridePlayerVersion: 
  m_GroupAssets:
  - {fileID: 11400000, guid: ff0bcf66e5ef5e941ae4f74a4764c0dc, type: 2}
  - {fileID: 11400000, guid: 12b467205c7b96048a951866da3148bb, type: 2}
  m_BuildSettings:
    m_CompileScriptsInVirtualMode: 0
    m_CleanupStreamingAssetsAfterBuilds: 1
    m_LogResourceManagerExceptions: 1
    m_BundleBuildPath: Temp/com.unity.addressables/AssetBundles
  m_ProfileSettings:
    m_Profiles:
    - m_InheritedParent: 
      m_Id: 5776341ef7f73b641be3cfe7ce7c0da5
      m_ProfileName: Default
      m_Values:
      - m_Id: f2a20301041e8d848bfcf795eb0dc6da
        m_Value: '[UnityEditor.EditorUserBuildSettings.activeBuildTarget]'
      - m_Id: 94d8534de3d9a804aa502438dbe01540
        m_Value: '[UnityEngine.AddressableAssets.Addressables.BuildPath]/[BuildTarget]'
      - m_Id: dbe3d16a7243fe940a444448fc790252
        m_Value: '{UnityEngine.AddressableAssets.Addressables.RuntimePath}/[BuildTarget]'
      - m_Id: 26e5c601c41a012439e9373cbdab25b8
        m_Value: ServerData/[BuildTarget]
      - m_Id: 0e21c86d86292bd4a9f7d263e1986f80
        m_Value: http://localhost/[BuildTarget]
    m_ProfileEntryNames:
    - m_Id: f2a20301041e8d848bfcf795eb0dc6da
      m_Name: BuildTarget
      m_InlineUsage: 0
    - m_Id: 94d8534de3d9a804aa502438dbe01540
      m_Name: LocalBuildPath
      m_InlineUsage: 0
    - m_Id: dbe3d16a7243fe940a444448fc790252
      m_Name: LocalLoadPath
      m_InlineUsage: 0
    - m_Id: 26e5c601c41a012439e9373cbdab25b8
      m_Name: RemoteBuildPath
      m_InlineUsage: 0
    - m_Id: 0e21c86d86292bd4a9f7d263e1986f80
      m_Name: RemoteLoadPath
      m_InlineUsage: 0
    m_ProfileVersion: 1
  m_LabelTable:
    m_LabelNames:
    - default
  m_SchemaTemplates: []
  m_GroupTemplateObjects:
  - {fileID: 11400000, guid: 4baa0f3650b86c64c8f319e969d7917a, type: 2}
  m_InitializationObjects: []
  m_CertificateHandlerType:
    m_AssemblyName: 
    m_ClassName: 
  m_ActivePlayerDataBuilderIndex: 3
  m_DataBuilders:
  - {fileID: 11400000, guid: 8bceab80e9da2334285e93d46c2411f4, type: 2}
  - {fileID: 11400000, guid: 212746bc3359a9c458a336063ed22ed9, type: 2}
  - {fileID: 11400000, guid: 614eabc5f311af74f9614c70862a3b21, type: 2}
  - {fileID: 11400000, guid: c3d4370382c754440add339a1a2fabc7, type: 2}
  m_ActiveProfileId: 5776341ef7f73b641be3cfe7ce7c0da5
  m_HostingServicesManager:
    m_HostingServiceInfos: []
    m_Settings: {fileID: 11400000}
    m_NextInstanceId: 0
    m_RegisteredServiceTypeRefs: []
